info face="EurostileLTStd-BoldEx2" size=32 bold=0 italic=0 charset="" unicode=0 stretchH=100 smooth=1 aa=1 padding=0,0,0,0 spacing=1,1
common lineHeight=47 base=26 scaleW=512 scaleH=256 pages=1 packed=0
page id=0 file="menu.png"
chars count=94
char id=32   x=0     y=0     width=0     height=0     xoffset=0     yoffset=24    xadvance=17     page=0  chnl=0 
char id=124   x=0     y=0     width=9     height=41     xoffset=0     yoffset=-4    xadvance=9     page=0  chnl=0 
char id=106   x=9     y=0     width=13     height=39     xoffset=-1     yoffset=-4    xadvance=13     page=0  chnl=0 
char id=36   x=22     y=0     width=33     height=38     xoffset=0     yoffset=-6    xadvance=33     page=0  chnl=0 
char id=38   x=55     y=0     width=38     height=34     xoffset=1     yoffset=-4    xadvance=35     page=0  chnl=0 
char id=37   x=93     y=0     width=46     height=34     xoffset=-1     yoffset=-4    xadvance=44     page=0  chnl=0 
char id=92   x=139     y=0     width=24     height=34     xoffset=-3     yoffset=-4    xadvance=13     page=0  chnl=0 
char id=64   x=163     y=0     width=29     height=34     xoffset=-1     yoffset=-4    xadvance=27     page=0  chnl=0 
char id=47   x=192     y=0     width=24     height=34     xoffset=-3     yoffset=-4    xadvance=13     page=0  chnl=0 
char id=41   x=216     y=0     width=16     height=34     xoffset=0     yoffset=-4    xadvance=17     page=0  chnl=0 
char id=40   x=232     y=0     width=16     height=34     xoffset=1     yoffset=-4    xadvance=17     page=0  chnl=0 
char id=48   x=248     y=0     width=34     height=34     xoffset=0     yoffset=-4    xadvance=33     page=0  chnl=0 
char id=57   x=282     y=0     width=32     height=34     xoffset=1     yoffset=-4    xadvance=33     page=0  chnl=0 
char id=56   x=314     y=0     width=32     height=34     xoffset=1     yoffset=-4    xadvance=33     page=0  chnl=0 
char id=54   x=346     y=0     width=32     height=34     xoffset=1     yoffset=-4    xadvance=33     page=0  chnl=0 
char id=53   x=378     y=0     width=32     height=34     xoffset=1     yoffset=-4    xadvance=33     page=0  chnl=0 
char id=51   x=410     y=0     width=32     height=34     xoffset=1     yoffset=-4    xadvance=33     page=0  chnl=0 
char id=100   x=442     y=0     width=27     height=34     xoffset=0     yoffset=-4    xadvance=28     page=0  chnl=0 
char id=98   x=469     y=0     width=27     height=34     xoffset=1     yoffset=-4    xadvance=28     page=0  chnl=0 
char id=85   x=0     y=41     width=34     height=34     xoffset=1     yoffset=-4    xadvance=35     page=0  chnl=0 
char id=83   x=34     y=41     width=35     height=34     xoffset=0     yoffset=-4    xadvance=35     page=0  chnl=0 
char id=81   x=69     y=41     width=41     height=34     xoffset=0     yoffset=-4    xadvance=37     page=0  chnl=0 
char id=79   x=110     y=41     width=37     height=34     xoffset=0     yoffset=-4    xadvance=37     page=0  chnl=0 
char id=74   x=147     y=41     width=29     height=34     xoffset=-1     yoffset=-4    xadvance=28     page=0  chnl=0 
char id=71   x=176     y=41     width=36     height=34     xoffset=0     yoffset=-4    xadvance=35     page=0  chnl=0 
char id=67   x=212     y=41     width=36     height=34     xoffset=0     yoffset=-4    xadvance=35     page=0  chnl=0 
char id=35   x=248     y=41     width=22     height=33     xoffset=6     yoffset=-4    xadvance=33     page=0  chnl=0 
char id=125   x=270     y=41     width=17     height=33     xoffset=2     yoffset=-4    xadvance=17     page=0  chnl=0 
char id=123   x=287     y=41     width=17     height=33     xoffset=-1     yoffset=-4    xadvance=17     page=0  chnl=0 
char id=93   x=304     y=41     width=16     height=33     xoffset=0     yoffset=-4    xadvance=17     page=0  chnl=0 
char id=91   x=320     y=41     width=16     height=33     xoffset=1     yoffset=-4    xadvance=17     page=0  chnl=0 
char id=63   x=336     y=41     width=28     height=33     xoffset=0     yoffset=-4    xadvance=28     page=0  chnl=0 
char id=33   x=364     y=41     width=12     height=33     xoffset=3     yoffset=-4    xadvance=17     page=0  chnl=0 
char id=55   x=376     y=41     width=32     height=33     xoffset=1     yoffset=-4    xadvance=33     page=0  chnl=0 
char id=52   x=408     y=41     width=33     height=33     xoffset=0     yoffset=-4    xadvance=33     page=0  chnl=0 
char id=50   x=441     y=41     width=32     height=33     xoffset=1     yoffset=-4    xadvance=33     page=0  chnl=0 
char id=49   x=473     y=41     width=23     height=33     xoffset=4     yoffset=-4    xadvance=33     page=0  chnl=0 
char id=108   x=496     y=41     width=11     height=33     xoffset=1     yoffset=-4    xadvance=13     page=0  chnl=0 
char id=107   x=0     y=75     width=26     height=33     xoffset=1     yoffset=-4    xadvance=26     page=0  chnl=0 
char id=105   x=26     y=75     width=11     height=33     xoffset=1     yoffset=-4    xadvance=13     page=0  chnl=0 
char id=104   x=37     y=75     width=26     height=33     xoffset=1     yoffset=-4    xadvance=28     page=0  chnl=0 
char id=102   x=63     y=75     width=20     height=33     xoffset=-1     yoffset=-4    xadvance=17     page=0  chnl=0 
char id=90   x=83     y=75     width=32     height=33     xoffset=0     yoffset=-4    xadvance=32     page=0  chnl=0 
char id=89   x=115     y=75     width=37     height=33     xoffset=-1     yoffset=-4    xadvance=35     page=0  chnl=0 
char id=88   x=152     y=75     width=39     height=33     xoffset=-1     yoffset=-4    xadvance=36     page=0  chnl=0 
char id=87   x=191     y=75     width=47     height=33     xoffset=-1     yoffset=-4    xadvance=44     page=0  chnl=0 
char id=86   x=238     y=75     width=38     height=33     xoffset=-1     yoffset=-4    xadvance=35     page=0  chnl=0 
char id=84   x=276     y=75     width=32     height=33     xoffset=-1     yoffset=-4    xadvance=30     page=0  chnl=0 
char id=82   x=308     y=75     width=33     height=33     xoffset=1     yoffset=-4    xadvance=35     page=0  chnl=0 
char id=80   x=341     y=75     width=33     height=33     xoffset=1     yoffset=-4    xadvance=33     page=0  chnl=0 
char id=78   x=374     y=75     width=36     height=33     xoffset=1     yoffset=-4    xadvance=38     page=0  chnl=0 
char id=77   x=410     y=75     width=43     height=33     xoffset=1     yoffset=-4    xadvance=44     page=0  chnl=0 
char id=76   x=453     y=75     width=28     height=33     xoffset=1     yoffset=-4    xadvance=28     page=0  chnl=0 
char id=75   x=0     y=108     width=35     height=33     xoffset=1     yoffset=-4    xadvance=35     page=0  chnl=0 
char id=73   x=35     y=108     width=12     height=33     xoffset=1     yoffset=-4    xadvance=14     page=0  chnl=0 
char id=72   x=47     y=108     width=34     height=33     xoffset=1     yoffset=-4    xadvance=35     page=0  chnl=0 
char id=70   x=81     y=108     width=29     height=33     xoffset=1     yoffset=-4    xadvance=30     page=0  chnl=0 
char id=69   x=110     y=108     width=31     height=33     xoffset=1     yoffset=-4    xadvance=32     page=0  chnl=0 
char id=68   x=141     y=108     width=36     height=33     xoffset=1     yoffset=-4    xadvance=37     page=0  chnl=0 
char id=66   x=177     y=108     width=35     height=33     xoffset=1     yoffset=-4    xadvance=35     page=0  chnl=0 
char id=65   x=212     y=108     width=38     height=33     xoffset=-1     yoffset=-4    xadvance=36     page=0  chnl=0 
char id=59   x=250     y=108     width=13     height=32     xoffset=2     yoffset=3    xadvance=17     page=0  chnl=0 
char id=121   x=263     y=108     width=27     height=32     xoffset=-1     yoffset=3    xadvance=24     page=0  chnl=0 
char id=113   x=290     y=108     width=27     height=32     xoffset=0     yoffset=3    xadvance=28     page=0  chnl=0 
char id=112   x=317     y=108     width=27     height=32     xoffset=1     yoffset=3    xadvance=28     page=0  chnl=0 
char id=103   x=344     y=108     width=27     height=32     xoffset=0     yoffset=3    xadvance=28     page=0  chnl=0 
char id=116   x=371     y=108     width=24     height=31     xoffset=-1     yoffset=-1    xadvance=23     page=0  chnl=0 
char id=62   x=395     y=108     width=21     height=27     xoffset=0     yoffset=3    xadvance=21     page=0  chnl=0 
char id=60   x=416     y=108     width=21     height=27     xoffset=0     yoffset=3    xadvance=21     page=0  chnl=0 
char id=117   x=437     y=108     width=26     height=27     xoffset=1     yoffset=3    xadvance=28     page=0  chnl=0 
char id=115   x=463     y=108     width=27     height=27     xoffset=0     yoffset=3    xadvance=27     page=0  chnl=0 
char id=111   x=0     y=141     width=28     height=27     xoffset=0     yoffset=3    xadvance=28     page=0  chnl=0 
char id=101   x=28     y=141     width=26     height=27     xoffset=0     yoffset=3    xadvance=25     page=0  chnl=0 
char id=99   x=54     y=141     width=27     height=27     xoffset=0     yoffset=3    xadvance=26     page=0  chnl=0 
char id=97   x=81     y=141     width=26     height=27     xoffset=0     yoffset=3    xadvance=26     page=0  chnl=0 
char id=43   x=107     y=141     width=21     height=26     xoffset=0     yoffset=3    xadvance=21     page=0  chnl=0 
char id=58   x=128     y=141     width=12     height=26     xoffset=3     yoffset=3    xadvance=17     page=0  chnl=0 
char id=122   x=140     y=141     width=24     height=26     xoffset=-1     yoffset=3    xadvance=22     page=0  chnl=0 
char id=120   x=164     y=141     width=28     height=26     xoffset=-1     yoffset=3    xadvance=25     page=0  chnl=0 
char id=119   x=192     y=141     width=40     height=26     xoffset=-1     yoffset=3    xadvance=37     page=0  chnl=0 
char id=118   x=232     y=141     width=28     height=26     xoffset=-1     yoffset=3    xadvance=25     page=0  chnl=0 
char id=114   x=260     y=141     width=23     height=26     xoffset=1     yoffset=3    xadvance=23     page=0  chnl=0 
char id=110   x=283     y=141     width=26     height=26     xoffset=1     yoffset=3    xadvance=28     page=0  chnl=0 
char id=109   x=309     y=141     width=40     height=26     xoffset=0     yoffset=3    xadvance=40     page=0  chnl=0 
char id=42   x=349     y=141     width=19     height=23     xoffset=1     yoffset=-4    xadvance=21     page=0  chnl=0 
char id=61   x=368     y=141     width=21     height=23     xoffset=0     yoffset=5    xadvance=21     page=0  chnl=0 
char id=39   x=389     y=141     width=9     height=23     xoffset=2     yoffset=-4    xadvance=13     page=0  chnl=0 
char id=34   x=398     y=141     width=18     height=23     xoffset=3     yoffset=-4    xadvance=23     page=0  chnl=0 
char id=94   x=416     y=141     width=20     height=22     xoffset=1     yoffset=-4    xadvance=21     page=0  chnl=0 
char id=44   x=436     y=141     width=13     height=22     xoffset=2     yoffset=13    xadvance=17     page=0  chnl=0 
char id=126   x=449     y=141     width=19     height=17     xoffset=1     yoffset=8    xadvance=21     page=0  chnl=0 
char id=46   x=468     y=141     width=12     height=16     xoffset=3     yoffset=13    xadvance=17     page=0  chnl=0 
char id=96   x=480     y=141     width=20     height=16     xoffset=-4     yoffset=-6    xadvance=13     page=0  chnl=0 
char id=45   x=0     y=168     width=14     height=15     xoffset=1     yoffset=9    xadvance=16     page=0  chnl=0 
char id=95   x=14     y=168     width=20     height=11     xoffset=-1     yoffset=22    xadvance=18     page=0  chnl=0 
kernings count=-1
