info face="EurostileLTStd-Ex2" size=16 bold=0 italic=0 charset="" unicode=0 stretchH=100 smooth=1 aa=1 padding=0,0,0,0 spacing=1,1
common lineHeight=20 base=14 scaleW=128 scaleH=128 pages=1 packed=0
page id=0 file="text.png"
chars count=94
char id=32   x=0     y=0     width=0     height=0     xoffset=0     yoffset=14    xadvance=8     page=0  chnl=0 
char id=124   x=0     y=0     width=3     height=18     xoffset=1     yoffset=1    xadvance=4     page=0  chnl=0 
char id=106   x=3     y=0     width=4     height=16     xoffset=0     yoffset=2    xadvance=4     page=0  chnl=0 
char id=36   x=7     y=0     width=15     height=15     xoffset=1     yoffset=1    xadvance=15     page=0  chnl=0 
char id=38   x=22     y=0     width=18     height=14     xoffset=1     yoffset=2    xadvance=17     page=0  chnl=0 
char id=37   x=40     y=0     width=22     height=14     xoffset=0     yoffset=2    xadvance=21     page=0  chnl=0 
char id=92   x=62     y=0     width=9     height=14     xoffset=-1     yoffset=2    xadvance=6     page=0  chnl=0 
char id=64   x=71     y=0     width=14     height=14     xoffset=0     yoffset=2    xadvance=13     page=0  chnl=0 
char id=47   x=85     y=0     width=9     height=14     xoffset=-1     yoffset=2    xadvance=6     page=0  chnl=0 
char id=41   x=94     y=0     width=6     height=14     xoffset=0     yoffset=2    xadvance=6     page=0  chnl=0 
char id=40   x=100     y=0     width=7     height=14     xoffset=0     yoffset=2    xadvance=6     page=0  chnl=0 
char id=48   x=107     y=0     width=16     height=14     xoffset=0     yoffset=2    xadvance=15     page=0  chnl=0 
char id=57   x=0     y=18     width=15     height=14     xoffset=1     yoffset=2    xadvance=15     page=0  chnl=0 
char id=56   x=15     y=18     width=15     height=14     xoffset=1     yoffset=2    xadvance=15     page=0  chnl=0 
char id=54   x=30     y=18     width=15     height=14     xoffset=1     yoffset=2    xadvance=15     page=0  chnl=0 
char id=53   x=45     y=18     width=15     height=14     xoffset=1     yoffset=2    xadvance=15     page=0  chnl=0 
char id=51   x=60     y=18     width=15     height=14     xoffset=1     yoffset=2    xadvance=15     page=0  chnl=0 
char id=121   x=75     y=18     width=12     height=14     xoffset=0     yoffset=5    xadvance=11     page=0  chnl=0 
char id=100   x=87     y=18     width=13     height=14     xoffset=0     yoffset=2    xadvance=13     page=0  chnl=0 
char id=98   x=100     y=18     width=12     height=14     xoffset=1     yoffset=2    xadvance=13     page=0  chnl=0 
char id=85   x=0     y=32     width=16     height=14     xoffset=1     yoffset=2    xadvance=17     page=0  chnl=0 
char id=83   x=16     y=32     width=15     height=14     xoffset=1     yoffset=2    xadvance=16     page=0  chnl=0 
char id=81   x=31     y=32     width=18     height=14     xoffset=1     yoffset=2    xadvance=17     page=0  chnl=0 
char id=79   x=49     y=32     width=17     height=14     xoffset=1     yoffset=2    xadvance=17     page=0  chnl=0 
char id=74   x=66     y=32     width=13     height=14     xoffset=0     yoffset=2    xadvance=13     page=0  chnl=0 
char id=71   x=79     y=32     width=16     height=14     xoffset=1     yoffset=2    xadvance=17     page=0  chnl=0 
char id=67   x=95     y=32     width=16     height=14     xoffset=1     yoffset=2    xadvance=16     page=0  chnl=0 
char id=35   x=111     y=32     width=10     height=13     xoffset=3     yoffset=2    xadvance=15     page=0  chnl=0 
char id=125   x=0     y=46     width=7     height=13     xoffset=0     yoffset=2    xadvance=6     page=0  chnl=0 
char id=123   x=7     y=46     width=7     height=13     xoffset=0     yoffset=2    xadvance=6     page=0  chnl=0 
char id=93   x=14     y=46     width=6     height=13     xoffset=0     yoffset=2    xadvance=6     page=0  chnl=0 
char id=91   x=20     y=46     width=6     height=13     xoffset=1     yoffset=2    xadvance=6     page=0  chnl=0 
char id=63   x=26     y=46     width=13     height=13     xoffset=0     yoffset=2    xadvance=13     page=0  chnl=0 
char id=33   x=39     y=46     width=4     height=13     xoffset=2     yoffset=2    xadvance=8     page=0  chnl=0 
char id=55   x=43     y=46     width=15     height=13     xoffset=1     yoffset=2    xadvance=15     page=0  chnl=0 
char id=52   x=58     y=46     width=16     height=13     xoffset=0     yoffset=2    xadvance=15     page=0  chnl=0 
char id=50   x=74     y=46     width=15     height=13     xoffset=1     yoffset=2    xadvance=15     page=0  chnl=0 
char id=49   x=89     y=46     width=8     height=13     xoffset=3     yoffset=2    xadvance=15     page=0  chnl=0 
char id=116   x=97     y=46     width=11     height=13     xoffset=0     yoffset=3    xadvance=9     page=0  chnl=0 
char id=113   x=108     y=46     width=13     height=13     xoffset=0     yoffset=5    xadvance=13     page=0  chnl=0 
char id=112   x=0     y=59     width=12     height=13     xoffset=1     yoffset=5    xadvance=13     page=0  chnl=0 
char id=108   x=12     y=59     width=3     height=13     xoffset=1     yoffset=2    xadvance=4     page=0  chnl=0 
char id=107   x=15     y=59     width=12     height=13     xoffset=1     yoffset=2    xadvance=11     page=0  chnl=0 
char id=105   x=27     y=59     width=3     height=13     xoffset=1     yoffset=2    xadvance=4     page=0  chnl=0 
char id=104   x=30     y=59     width=12     height=13     xoffset=1     yoffset=2    xadvance=13     page=0  chnl=0 
char id=103   x=42     y=59     width=13     height=13     xoffset=0     yoffset=5    xadvance=13     page=0  chnl=0 
char id=102   x=55     y=59     width=9     height=13     xoffset=0     yoffset=2    xadvance=8     page=0  chnl=0 
char id=90   x=64     y=59     width=15     height=13     xoffset=0     yoffset=2    xadvance=15     page=0  chnl=0 
char id=89   x=79     y=59     width=17     height=13     xoffset=0     yoffset=2    xadvance=15     page=0  chnl=0 
char id=88   x=96     y=59     width=17     height=13     xoffset=0     yoffset=2    xadvance=16     page=0  chnl=0 
char id=87   x=0     y=72     width=23     height=13     xoffset=0     yoffset=2    xadvance=21     page=0  chnl=0 
char id=86   x=23     y=72     width=17     height=13     xoffset=0     yoffset=2    xadvance=15     page=0  chnl=0 
char id=84   x=40     y=72     width=15     height=13     xoffset=0     yoffset=2    xadvance=14     page=0  chnl=0 
char id=82   x=55     y=72     width=15     height=13     xoffset=1     yoffset=2    xadvance=16     page=0  chnl=0 
char id=80   x=70     y=72     width=15     height=13     xoffset=1     yoffset=2    xadvance=15     page=0  chnl=0 
char id=78   x=85     y=72     width=16     height=13     xoffset=1     yoffset=2    xadvance=17     page=0  chnl=0 
char id=77   x=101     y=72     width=20     height=13     xoffset=1     yoffset=2    xadvance=21     page=0  chnl=0 
char id=76   x=0     y=85     width=13     height=13     xoffset=1     yoffset=2    xadvance=12     page=0  chnl=0 
char id=75   x=13     y=85     width=16     height=13     xoffset=1     yoffset=2    xadvance=16     page=0  chnl=0 
char id=73   x=29     y=85     width=4     height=13     xoffset=1     yoffset=2    xadvance=5     page=0  chnl=0 
char id=72   x=33     y=85     width=16     height=13     xoffset=1     yoffset=2    xadvance=17     page=0  chnl=0 
char id=70   x=49     y=85     width=13     height=13     xoffset=1     yoffset=2    xadvance=13     page=0  chnl=0 
char id=69   x=62     y=85     width=13     height=13     xoffset=1     yoffset=2    xadvance=14     page=0  chnl=0 
char id=68   x=75     y=85     width=16     height=13     xoffset=1     yoffset=2    xadvance=17     page=0  chnl=0 
char id=66   x=91     y=85     width=15     height=13     xoffset=1     yoffset=2    xadvance=16     page=0  chnl=0 
char id=65   x=106     y=85     width=17     height=13     xoffset=0     yoffset=2    xadvance=16     page=0  chnl=0 
char id=59   x=123     y=85     width=4     height=12     xoffset=2     yoffset=5    xadvance=8     page=0  chnl=0 
char id=62   x=0     y=98     width=10     height=11     xoffset=0     yoffset=5    xadvance=10     page=0  chnl=0 
char id=60   x=10     y=98     width=10     height=11     xoffset=0     yoffset=5    xadvance=10     page=0  chnl=0 
char id=117   x=20     y=98     width=12     height=11     xoffset=1     yoffset=5    xadvance=13     page=0  chnl=0 
char id=115   x=32     y=98     width=13     height=11     xoffset=0     yoffset=5    xadvance=12     page=0  chnl=0 
char id=111   x=45     y=98     width=13     height=11     xoffset=1     yoffset=5    xadvance=13     page=0  chnl=0 
char id=101   x=58     y=98     width=13     height=11     xoffset=0     yoffset=5    xadvance=12     page=0  chnl=0 
char id=99   x=71     y=98     width=13     height=11     xoffset=0     yoffset=5    xadvance=12     page=0  chnl=0 
char id=97   x=84     y=98     width=13     height=11     xoffset=0     yoffset=5    xadvance=12     page=0  chnl=0 
char id=43   x=97     y=98     width=10     height=10     xoffset=0     yoffset=5    xadvance=10     page=0  chnl=0 
char id=58   x=107     y=98     width=4     height=10     xoffset=2     yoffset=5    xadvance=8     page=0  chnl=0 
char id=122   x=111     y=98     width=11     height=10     xoffset=0     yoffset=5    xadvance=11     page=0  chnl=0 
char id=120   x=0     y=109     width=12     height=10     xoffset=0     yoffset=5    xadvance=11     page=0  chnl=0 
char id=119   x=12     y=109     width=18     height=10     xoffset=0     yoffset=5    xadvance=17     page=0  chnl=0 
char id=118   x=30     y=109     width=12     height=10     xoffset=0     yoffset=5    xadvance=11     page=0  chnl=0 
char id=114   x=42     y=109     width=10     height=10     xoffset=1     yoffset=5    xadvance=10     page=0  chnl=0 
char id=110   x=52     y=109     width=12     height=10     xoffset=1     yoffset=5    xadvance=13     page=0  chnl=0 
char id=109   x=64     y=109     width=19     height=10     xoffset=1     yoffset=5    xadvance=20     page=0  chnl=0 
char id=42   x=83     y=109     width=9     height=8     xoffset=1     yoffset=2    xadvance=9     page=0  chnl=0 
char id=94   x=92     y=109     width=10     height=8     xoffset=0     yoffset=2    xadvance=10     page=0  chnl=0 
char id=61   x=102     y=109     width=10     height=7     xoffset=0     yoffset=7    xadvance=10     page=0  chnl=0 
char id=39   x=112     y=109     width=3     height=6     xoffset=1     yoffset=2    xadvance=4     page=0  chnl=0 
char id=34   x=115     y=109     width=6     height=6     xoffset=0     yoffset=2    xadvance=5     page=0  chnl=0 
char id=126   x=0     y=119     width=9     height=5     xoffset=1     yoffset=8    xadvance=10     page=0  chnl=0 
char id=44   x=9     y=119     width=4     height=5     xoffset=2     yoffset=12    xadvance=8     page=0  chnl=0 
char id=96   x=13     y=119     width=6     height=5     xoffset=-1     yoffset=1    xadvance=4     page=0  chnl=0 
char id=45   x=19     y=119     width=6     height=3     xoffset=1     yoffset=9    xadvance=7     page=0  chnl=0 
char id=46   x=25     y=119     width=4     height=3     xoffset=2     yoffset=12    xadvance=8     page=0  chnl=0 
char id=95   x=29     y=119     width=10     height=2     xoffset=0     yoffset=15    xadvance=8     page=0  chnl=0 
kernings count=-1
